{
  "task_id": "task_f675bcec5b4b",
  "scheme_id": "C",
  "task": "设计一个简单的RESTful待办事项API，支持增删改查",
  "keywords": [
    "API设计"
  ],
  "scheme": {
    "id": "C",
    "agent_role": "安全专家",
    "agent_name": "agent_3 (安全专家)",
    "object_name": "安全与合规对象",
    "steps": {
      "step_0": "核心资源为待办事项（Todo），属性包括：id（UUID格式，全局唯一）、title（字符串，1-200字符）、completed（布尔值，默认false）、created_at（ISO 8601时间戳）、updated_at（ISO 8601时间戳）、user_id（字符串，关联用户身份）。CRUD操作映射：POST /todos（创建）、GET /todos（列表）、GET /todos/{id}（详情）、PUT /todos/{id}（更新）、DELETE /todos/{id}（删除）。",
      "step_3357d9f0": "数据结构：使用关系型数据库（如PostgreSQL）存储，表名todos，字段：id UUID PRIMARY KEY, title VARCHAR(200) NOT NULL, completed BOOLEAN DEFAULT FALSE, created_at TIMESTAMPTZ DEFAULT NOW(), updated_at TIMESTAMPTZ DEFAULT NOW(), user_id VARCHAR(100) NOT NULL。索引：user_id + created_at复合索引以支持用户级查询。数据访问接口通过ORM（如SQLAlchemy）封装，提供CRUD方法，所有查询强制带上user_id过滤条件。\n\n[技术架构对象修改 | 复杂度+2]: 建议在数据模型中增加user_id字段（UUID类型，NOT NULL），用于关联用户与待办事项，并建立索引以支持按用户查询。同时，为created_at和updated_at字段添加索引以优化排序和分页性能。",
      "step_0edbec73": "端点定义：\n- POST /todos：创建待办，请求体包含title，返回201及完整Todo对象。\n- GET /todos：获取当前用户所有待办，支持分页参数page和limit（默认page=1, limit=20），返回列表及总数。\n- GET /todos/{id}：获取单个待办，返回200或404。\n- PUT /todos/{id}：更新待办，请求体可包含title和completed，返回200或404。\n- DELETE /todos/{id}：删除待办，返回204或404。\n所有端点需验证{id}为合法UUID格式。",
      "step_2262f8ee": "统一错误响应格式：{\"error\": {\"code\": \"ERROR_CODE\", \"message\": \"描述\", \"details\": {}}}。状态码规则：200成功，201创建成功，204删除成功，400请求参数错误（如标题为空、ID格式错误），401未认证，403无权限（如操作其他用户资源），404资源不存在，409冲突（如重复创建），429请求过多，500服务器内部错误。所有错误记录日志，不泄露敏感信息。",
      "step_981a864f": "输入验证：title字段非空且长度≤200字符，禁止HTML标签（通过转义或拒绝），id参数必须为UUID v4格式。请求大小限制：请求体最大10KB。防止注入：使用参数化查询或ORM，禁止拼接SQL。设置CORS策略仅允许受信任域名。启用速率限制（每用户每分钟100次请求）。",
      "step_b25887f7": "单元测试覆盖数据模型验证、输入验证逻辑、错误处理函数。集成测试覆盖所有CRUD端点，包括正常流程和异常流程（如无效ID、未认证请求）。使用pytest和requests库。文档生成：使用OpenAPI 3.0规范，通过工具（如Swagger UI）自动生成交互式文档，包含每个端点的请求/响应示例、认证方式说明。",
      "step_b152629a": "目标用户：个人用户管理日常待办事项。核心场景：快速添加、查看、标记完成、删除待办。优先级：P0（必须）支持基本CRUD和用户隔离；P1（重要）支持分页和搜索；P2（可选）支持标签、截止日期、排序。当前设计聚焦P0功能，确保安全性和数据隔离。",
      "step_0b056e2f": "分页支持：GET /todos?page=1&limit=20，默认limit=20，最大limit=100。数据库查询使用OFFSET/LIMIT，并添加user_id索引。缓存策略：对GET /todos可启用Redis缓存（TTL 60秒），但需注意缓存失效。未来扩展：可引入全文搜索（如Elasticsearch）和WebSocket实时更新。当前设计满足单用户低并发场景。",
      "step_8e2d19df": "容器化部署：使用Docker打包应用，Docker Compose编排API服务、PostgreSQL、Redis。环境配置通过环境变量管理（如DATABASE_URL、JWT_SECRET）。日志记录：结构化日志（JSON格式），包含请求ID、用户ID、端点、状态码、耗时。监控：暴露/health端点，集成Prometheus指标（请求数、错误率、延迟）。版本管理：API路径前缀/v1，通过Git标签管理版本。",
      "step_5f2321c2": "威胁识别：\n1. 未授权访问：攻击者绕过认证访问API。风险等级：高。\n2. 数据泄露：用户A获取用户B的待办数据。风险等级：高。\n3. CSRF：跨站请求伪造，利用用户会话执行操作。风险等级：中（若使用Cookie认证）。\n4. XSS：待办标题包含恶意脚本。风险等级：中。\n5. 注入攻击：SQL或NoSQL注入。风险等级：高。\n6. 暴力破解：枚举用户ID或密码。风险等级：中。\n缓解措施：强制认证（JWT）、资源级授权（user_id过滤）、输入转义、参数化查询、速率限制。",
      "step_20d05194": "认证方式：使用JWT（JSON Web Token）进行无状态认证。用户先通过登录接口获取Token（假设已有用户系统），Token包含user_id和过期时间（24小时）。API要求所有请求携带Authorization: Bearer <token>头。授权：每个数据库查询强制添加WHERE user_id = :current_user_id，确保用户只能操作自己的待办。Token验证中间件解析并注入当前用户上下文。",
      "step_857535fb": "传输层：强制TLS 1.2+，所有API通信通过HTTPS。存储层：数据库连接使用SSL，敏感字段（如用户ID）在日志中脱敏（如显示前4位）。待办内容本身不加密（因非高度敏感），但若未来存储个人身份信息（PII），需使用字段级加密（如AES-256-GCM）。隐私保护：遵循最小数据原则，仅存储必要字段，不记录用户IP等额外信息。数据保留策略：用户删除账号后30天内清除所有待办数据。"
    },
    "modified_steps": [
      "step_3357d9f0"
    ],
    "modification_history": [
      {
        "agent_id": "agent_2",
        "agent_role": "性能架构师",
        "object_name": "技术架构对象",
        "target_step": "step_3357d9f0",
        "change_type": "enhancement",
        "complexity_delta": 2,
        "content": "建议在数据模型中增加user_id字段（UUID类型，NOT NULL），用于关联用户与待办事项，并建立索引以支持按用户查询。同时，为created_at和updated_at字段添加索引以优化排序和分页性能。",
        "reason": "当前设计缺少用户关联字段，无法支持多用户场景下的数据隔离和查询。添加user_id字段是基础的多租户支持，索引优化可提升查询性能，对整体架构的可扩展性至关重要。"
      }
    ],
    "missing_reports": [],
    "is_paused": false,
    "complexity_score": 2,
    "owner_agent_id": "agent_3",
    "integrated_content": "# 待办事项API技术方案文档\n\n## 1. 系统概述\n\n本方案设计一个RESTful待办事项API，支持个人用户管理日常待办事项。系统采用JWT无状态认证实现用户隔离，使用PostgreSQL 15存储数据，通过Docker Compose容器化部署。核心功能包括创建、读取、更新、删除待办事项，支持分页查询，并内置安全防护机制。API服务运行在8080端口，所有通信强制使用TLS 1.2+。\n\n## 2. 数据模型与存储设计\n\n### 2.1 数据库表结构\n\n```sql\n-- 用户表（假设已存在，此处仅作参考）\nCREATE TABLE users (\n    id UUID PRIMARY KEY DEFAULT gen_random_uuid(),\n    username VARCHAR(50) UNIQUE NOT NULL,\n    password_hash VARCHAR(255) NOT NULL,\n    created_at TIMESTAMPTZ DEFAULT NOW()\n);\n\n-- 待办事项表\nCREATE TABLE todos (\n    id UUID PRIMARY KEY DEFAULT gen_random_uuid(),\n    user_id UUID NOT NULL,\n    title VARCHAR(200) NOT NULL,\n    completed BOOLEAN DEFAULT FALSE,\n    created_at TIMESTAMPTZ DEFAULT NOW(),\n    updated_at TIMESTAMPTZ DEFAULT NOW(),\n    CONSTRAINT fk_user FOREIGN KEY (user_id) REFERENCES users(id) ON DELETE CASCADE\n);\n\n-- 索引\nCREATE INDEX idx_todos_user_id ON todos(user_id);\nCREATE INDEX idx_todos_created_at ON todos(created_at DESC);\nCREATE INDEX idx_todos_updated_at ON todos(updated_at DESC);\n```\n\n### 2.2 数据模型说明\n\n- **id**: UUID v4，主键，自动生成，格式如 `550e8400-e29b-41d4-a716-446655440000`\n- **user_id**: 关联用户表UUID，强制用户隔离，通过JWT解析获取\n- **title**: 非空，最大200字符，输入时拒绝包含HTML标签的字符串\n- **completed**: 布尔值，默认false，更新时允许修改\n- **created_at/updated_at**: TIMESTAMPTZ类型，自动记录UTC时间，用于排序和审计\n\n### 2.3 数据库连接配置\n\n- 连接池大小：最小5，最大20\n- 连接超时：30秒\n- 空闲连接回收：10分钟\n- SSL模式：require\n\n## 3. API端点设计\n\n### 3.1 端点列表\n\n| 方法 | 路径 | 描述 | 认证要求 | 请求体大小限制 |\n|------|------|------|----------|----------------|\n| POST | /todos | 创建待办 | 必需 | 10KB |\n| GET | /todos | 获取当前用户待办列表 | 必需 | 无 |\n| GET | /todos/{id} | 获取单个待办 | 必需 | 无 |\n| PUT | /todos/{id} | 更新待办 | 必需 | 10KB |\n| DELETE | /todos/{id} | 删除待办 | 必需 | 无 |\n\n### 3.2 请求/响应示例\n\n**POST /todos**\n```json\n// 请求头: Authorization: Bearer <token>\n// 请求体\n{\"title\": \"完成项目报告\"}\n\n// 响应 201\n{\n    \"id\": \"550e8400-e29b-41d4-a716-446655440000\",\n    \"title\": \"完成项目报告\",\n    \"completed\": false,\n    \"created_at\": \"2024-01-15T10:30:00Z\",\n    \"updated_at\": \"2024-01-15T10:30:00Z\"\n}\n```\n\n**GET /todos?page=1&limit=20**\n```json\n// 请求头: Authorization: Bearer <token>\n// 响应 200\n{\n    \"data\": [\n        {\n            \"id\": \"550e8400-e29b-41d4-a716-446655440000\",\n            \"title\": \"完成项目报告\",\n            \"completed\": false,\n            \"created_at\": \"2024-01-15T10:30:00Z\",\n            \"updated_at\": \"2024-01-15T10:30:00Z\"\n        }\n    ],\n    \"pagination\": {\n        \"page\": 1,\n        \"limit\": 20,\n        \"total\": 42,\n        \"total_pages\": 3\n    }\n}\n```\n\n**GET /todos/{id}**\n```json\n// 请求头: Authorization: Bearer <token>\n// 响应 200\n{\n    \"id\": \"550e8400-e29b-41d4-a716-446655440000\",\n    \"title\": \"完成项目报告\",\n    \"completed\": false,\n    \"created_at\": \"2024-01-15T10:30:00Z\",\n    \"updated_at\": \"2024-01-15T10:30:00Z\"\n}\n```\n\n**PUT /todos/{id}**\n```json\n// 请求头: Authorization: Bearer <token>\n// 请求体\n{\"title\": \"更新后的标题\", \"completed\": true}\n\n// 响应 200\n{\n    \"id\": \"550e8400-e29b-41d4-a716-446655440000\",\n    \"title\": \"更新后的标题\",\n    \"completed\": true,\n    \"created_at\": \"2024-01-15T10:30:00Z\",\n    \"updated_at\": \"2024-01-15T11:00:00Z\"\n}\n```\n\n**DELETE /todos/{id}**\n```json\n// 请求头: Authorization: Bearer <token>\n// 响应 204 (无内容体)\n```\n\n### 3.3 分页参数\n\n- `page`: 页码，从1开始，默认1，最小值1\n- `limit`: 每页条数，默认20，最小值1，最大值100\n- 数据库使用OFFSET/LIMIT实现分页：`OFFSET = (page - 1) * limit`\n- 响应中包含 `total`（总记录数）和 `total_pages`（总页数，计算方式：`ceil(total / limit)`）\n\n### 3.4 排序规则\n\n- 默认按 `created_at DESC` 排序\n- 可通过查询参数 `sort_by`（支持 `created_at`、`updated_at`）和 `sort_order`（`asc` 或 `desc`）自定义排序\n\n## 4. 认证与授权\n\n### 4.1 认证方式\n\n- 使用JWT无状态认证，算法为HS256\n- Token载荷包含：\n  - `user_id`: 用户UUID\n  - `exp`: 过期时间，设置为当前时间 + 24小时（86400秒）\n  - `iat`: 签发时间\n- 请求头格式：`Authorization: Bearer <token>`\n- 假设已有用户系统提供登录接口获取Token，Token在服务端使用 `JWT_SECRET` 环境变量签名\n\n### 4.2 授权机制\n\n- 每个数据库查询强制添加 `WHERE user_id = :current_user_id`\n- 访问单个待办时，先验证 `user_id` 与JWT中的 `user_id` 匹配\n- 资源不存在或无权访问时统一返回404，避免泄露资源存在性\n- Token过期返回401，Token缺失返回401\n\n## 5. 错误处理与状态码\n\n### 5.1 统一错误响应格式\n\n```json\n{\n    \"error\": {\n        \"code\": \"ERROR_CODE\",\n        \"message\": \"描述信息\",\n        \"details\": {}\n    }\n}\n```\n\n错误码命名规则：大写字母+下划线，如 `VALIDATION_ERROR`、`NOT_FOUND`、`UNAUTHORIZED`、`RATE_LIMITED`、`INTERNAL_ERROR`\n\n### 5.2 状态码规则\n\n| 状态码 | 场景 | 错误码示例 |\n|--------|------|------------|\n| 200 | 成功获取/更新 | - |\n| 201 | 成功创建 | - |\n| 204 | 成功删除 | - |\n| 400 | 参数错误（标题为空/超长、ID格式错误、请求体JSON解析失败） | `VALIDATION_ERROR` |\n| 401 | 未认证（Token缺失/过期/无效） | `UNAUTHORIZED` |\n| 404 | 资源不存在（或无权访问） | `NOT_FOUND` |\n| 429 | 速率限制触发 | `RATE_LIMITED` |\n| 500 | 服务器内部错误（数据库连接失败、未捕获异常） | `INTERNAL_ERROR` |\n\n## 6. 安全措施\n\n### 6.1 输入验证\n\n- **title**: 非空，长度1-200字符，拒绝包含HTML标签（使用正则或库如bleach检测）\n- **id**: 必须为UUID v4格式，正则：`^[0-9a-f]{8}-[0-9a-f]{4}-4[0-9a-f]{3}-[89ab][0-9a-f]{3}-[0-9a-f]{12}$`\n- **completed**: 必须为布尔值（true/false）\n- 请求体大小限制：10KB，超过返回413 Payload Too Large\n- 所有未知字段静默忽略，不报错\n\n### 6.2 防注入\n\n- 使用参数化查询（如psycopg2的`%s`占位符）或ORM（如SQLAlchemy），禁止拼接SQL\n- 所有用户输入经过严格转义，输出时使用JSON序列化自动处理\n\n### 6.3 传输安全\n\n- 强制TLS 1.2+，所有API通信通过HTTPS\n- 数据库连接使用SSL，`sslmode=require`\n- Redis连接使用密码认证（通过`REDIS_PASSWORD`环境变量）\n\n### 6.4 速率限制\n\n- 每用户每分钟100次请求，基于JWT中的`user_id`计数\n- 使用Redis实现计数器，key格式：`rate_limit:{user_id}:{分钟时间戳}`\n- 超过限制返回429，响应头包含`Retry-After: 60`\n- 计数器TTL设置为70秒，避免过期数据残留\n\n### 6.5 CORS策略\n\n- 仅允许受信任域名列表，通过`ALLOWED_ORIGINS`环境变量配置（逗号分隔）\n- 生产环境严格限制来源，开发环境可允许`http://localhost:3000`\n- 支持的HTTP方法：GET, POST, PUT, DELETE, OPTIONS\n- 支持的请求头：Authorization, Content-Type\n\n### 6.6 日志安全\n\n- 结构化JSON日志，包含字段：`request_id`（UUID）、`user_id`（脱敏，显示前4位）、`endpoint`、`method`、`status_code`、`duration_ms`、`timestamp`\n- 用户ID脱敏规则：`user_id[:4] + \"****\"`，如 `550e****`\n- 禁止记录Token、密码或任何敏感数据\n- 日志级别：INFO（正常请求）、WARN（4xx错误）、ERROR（5xx错误）\n\n## 7. 部署与运维\n\n### 7.1 容器化部署\n\n```yaml\n# docker-compose.yml\nversion: '3.8'\nservices:\n  api:\n    build: .\n    ports:\n      - \"8080:8080\"\n    environment:\n      - DATABASE_URL=postgresql://user:pass@db:5432/todos?sslmode=require\n      - JWT_SECRET=${JWT_SECRET}\n      - REDIS_URL=redis://:${REDIS_PASSWORD}@redis:6379/0\n      - ALLOWED_ORIGINS=https://example.com\n      - RATE_LIMIT=100\n      - LOG_LEVEL=INFO\n    depends_on:\n      db:\n        condition: service_healthy\n      redis:\n        condition: service_healthy\n    healthcheck:\n      test: [\"CMD\", \"curl\", \"-f\", \"http://localhost:8080/health\"]\n      interval: 30s\n      timeout: 10s\n      retries: 3\n\n  db:\n    image: postgres:15\n    environment:\n      - POSTGRES_DB=todos\n      - POSTGRES_USER=user\n      - POSTGRES_PASSWORD=pass\n    volumes:\n      - pgdata:/var/lib/postgresql/data\n    healthcheck:\n      test: [\"CMD-SHELL\", \"pg_isready -U user -d todos\"]\n      interval: 10s\n      timeout: 5s\n      retries: 5\n\n  redis:\n    image: redis:7-alpine\n    command: redis-server --requirepass ${REDIS_PASSWORD}\n    volumes:\n      - redisdata:/data\n    healthcheck:\n      test: [\"CMD\", \"redis-cli\", \"ping\"]\n      interval: 10s\n      timeout: 5s\n      retries: 5\n\nvolumes:\n  pgdata:\n  redisdata:\n```\n\n### 7.2 环境变量管理\n\n| 变量名 | 说明 | 默认值 | 是否必需 |\n|--------|------|--------|----------|\n| DATABASE_URL | PostgreSQL连接字符串 | - | 是 |\n| JWT_SECRET | JWT签名密钥（至少32字符） | - | 是 |\n| REDIS_URL | Redis连接地址 | - | 是 |\n| REDIS_PASSWORD | Redis密码 | - | 是 |\n| ALLOWED_ORIGINS | CORS允许域名列表（逗号分隔） | * | 否 |\n| RATE_LIMIT | 每用户每分钟最大请求数 | 100 | 否 |\n| LOG_LEVEL | 日志级别（DEBUG/INFO/WARN/ERROR） | INFO | 否 |\n| PORT | API监听端口 | 8080 | 否 |\n\n### 7.3 健康检查与监控\n\n- 暴露 `/health` 端点，返回JSON：\n  ```json\n  {\n      \"status\": \"ok\",\n      \"database\": \"connected\",\n      \"redis\": \"connected\",\n      \"uptime_seconds\": 3600\n  }\n  ```\n- 使用结构化JSON日志，便于ELK或Loki等日志系统采集\n- 可集成Prometheus指标暴露（`/metrics`），包括请求计数、延迟分布、错误率\n\n## 8. 测试策略\n\n### 8.1 单元测试\n\n- 覆盖数据模型验证逻辑（title长度、completed类型）\n- 覆盖输入验证函数（UUID格式、HTML标签检测）\n- 覆盖错误处理函数（统一错误响应格式）\n- 使用pytest框架，测试覆盖率目标≥80%\n\n### 8.2 集成测试\n\n- 覆盖所有CRUD端点正常流程（创建、读取、更新、删除）\n- 覆盖异常流程：无效ID（非UUID格式）、未认证（无Token）、越权访问（其他用户资源）、参数错误（空标题、超长标题）\n- 使用requests库发送HTTP请求，测试数据库使用独立测试数据库（`todos_test`）\n- 每次测试前重置数据库，确保测试隔离\n\n### 8.3 安全测试\n\n- 测试SQL注入防护：尝试 `title = \"'; DROP TABLE todos;--\"`\n- 测试XSS防护：尝试 `title = \"<script>alert('xss')</script>\"`，应返回400\n- 测试速率限制：连续发送101次请求，第101次应返回429\n- 测试JWT过期：使用过期Token（`exp`为过去时间）应返回401\n- 测试JWT伪造：使用无效签名应返回401\n\n## 9. 威胁模型与风险缓解\n\n| 威胁 | 风险等级 | 缓解措施 |\n|------|----------|----------|\n| 未授权访问 | 高 | JWT认证，Token过期机制（24小时），强制Bearer头验证 |\n| 数据泄露（跨用户） | 高 | 强制user_id过滤，返回404而非403 |\n| CSRF | 中 | 使用JWT无状态认证，避免Cookie，Token通过Authorization头传递 |\n| XSS | 中 | 输入拒绝HTML标签，输出JSON序列化自动转义 |\n| SQL注入 | 高 | 参数化查询，ORM，禁止拼接SQL |\n| 暴力破解 | 中 | 速率限制（100次/分钟），失败尝试记录到日志 |\n| 中间人攻击 | 高 | 强制TLS 1.2+，数据库连接使用SSL |\n| 拒绝服务（DoS） | 中 | 请求体大小限制10KB，速率限制，连接池限制 |\n\n## 10. 性能与扩展性\n\n### 10.1 数据库优化\n\n- user_id、created_at、updated_at建立索引，覆盖主要查询场景\n- 分页使用OFFSET/LIMIT，大数据量（>10000条）时考虑游标分页（基于`created_at`和`id`）\n- 定期执行`VACUUM ANALYZE`（PostgreSQL自动维护或通过cron）\n\n### 10.2 缓存策略\n\n- GET /todos可启用Redis缓存，key格式：`todos:{user_id}:{page}:{limit}`，TTL 60秒\n- 写操作（POST、PUT、DELETE）时主动失效对应用户的所有缓存（使用通配符删除）\n- 缓存雪崩防护：TTL添加随机偏移（±10秒）\n- 缓存穿透防护：空结果也缓存（TTL 30秒），避免频繁查询数据库\n\n### 10.3 未来扩展\n\n- 引入全文搜索（如Elasticsearch），支持标题模糊搜索\n- 支持标签（多对多关系）、截止日期（`due_date`字段）、排序功能（多字段排序）\n- 实现WebSocket实时推送更新（通过Redis Pub/Sub）\n- 支持批量操作（批量创建、批量更新）\n\n## 11. 用户场景与优先级\n\n### P0（必须）\n- 基本CRUD操作（POST、GET、PUT、DELETE）\n- 用户隔离（JWT认证 + user_id过滤）\n- 输入验证和安全防护（SQL注入、XSS、速率限制）\n\n### P1（重要）\n- 分页支持（page、limit参数）\n- 错误处理和统一响应格式（标准化错误码）\n- 健康检查端点（/health）\n\n### P2（可选）\n- 标签、截止日期\n- 排序功能（sort_by、sort_order）\n- 全文搜索\n- WebSocket实时推送\n\n当前方案聚焦P0功能，确保安全性和数据隔离，同时为P1和P2预留扩展接口。所有配置参数（如速率限制、缓存TTL、连接池大小）均通过环境变量可调，便于运维调整。",
    "simplification_applied": false
  },
  "vote": {
    "plan_id": "C",
    "correctness": 9,
    "completeness": 9,
    "feasibility": 6,
    "innovation": 7,
    "business_alignment": 6,
    "total_score": 7.35,
    "rank": 2,
    "comment": "方案C安全设计最完善（JWT、速率限制、数据库持久化），但复杂度高，对简单待办API而言过度设计，可行性较低，不适合快速原型。"
  },
  "steps": [
    {
      "id": "step_3357d9f0",
      "index": 1,
      "name": "需求分析与资源定义",
      "description": "明确API的核心资源（待办事项）及其属性（如id、标题、完成状态、创建时间），确定CRUD操作对应的HTTP方法和端点路径",
      "dependencies": [],
      "design_content": ""
    },
    {
      "id": "step_0edbec73",
      "index": 2,
      "name": "数据模型与存储设计",
      "description": "设计待办事项的数据结构（字段、类型、约束），选择存储方式（如内存列表或轻量数据库），定义数据访问接口",
      "dependencies": [],
      "design_content": ""
    },
    {
      "id": "step_2262f8ee",
      "index": 3,
      "name": "API端点与路由设计",
      "description": "为每个CRUD操作定义具体的RESTful端点（如GET /todos, POST /todos, GET /todos/:id, PUT /todos/:id, DELETE /todos/:id），包括请求/响应格式",
      "dependencies": [],
      "design_content": ""
    },
    {
      "id": "step_981a864f",
      "index": 4,
      "name": "错误处理与状态码规范",
      "description": "定义标准HTTP状态码使用规则（如200成功、201创建、400错误请求、404未找到、500服务器错误），设计统一的错误响应结构",
      "dependencies": [],
      "design_content": ""
    },
    {
      "id": "step_b25887f7",
      "index": 5,
      "name": "安全与输入验证",
      "description": "实现基本的输入验证（如标题非空、ID格式校验），考虑简单的安全措施（如请求大小限制、防止注入）",
      "dependencies": [],
      "design_content": ""
    },
    {
      "id": "step_b152629a",
      "index": 6,
      "name": "测试与文档生成",
      "description": "编写单元测试和集成测试覆盖核心功能，生成API文档（如OpenAPI规范）以便开发者使用",
      "dependencies": [],
      "design_content": ""
    },
    {
      "id": "step_0b056e2f",
      "index": 7,
      "name": "用户场景与优先级定义",
      "description": "明确待办事项API的目标用户、使用场景（个人/团队）、功能优先级（如是否支持截止日期、标签等），确保后续设计聚焦核心价值。",
      "dependencies": [],
      "design_content": ""
    },
    {
      "id": "step_8e2d19df",
      "index": 8,
      "name": "性能与扩展性考量",
      "description": "评估API在高并发下的表现，考虑缓存策略、分页支持（如GET /todos?page=1&limit=20）、未来扩展性（如支持排序、过滤）。",
      "dependencies": [],
      "design_content": ""
    },
    {
      "id": "step_5f2321c2",
      "index": 9,
      "name": "部署与运维规划",
      "description": "定义API的部署方式（如容器化、环境配置）、日志记录、监控告警及版本管理策略。",
      "dependencies": [],
      "design_content": ""
    },
    {
      "id": "step_20d05194",
      "index": 10,
      "name": "威胁建模与安全风险评估",
      "description": "系统性地识别待办事项API可能面临的威胁（如未授权访问、数据泄露、CSRF、XSS等），并评估风险等级，为后续安全控制措施提供依据。",
      "dependencies": [],
      "design_content": ""
    },
    {
      "id": "step_857535fb",
      "index": 11,
      "name": "认证与授权机制设计",
      "description": "定义API的访问控制策略，包括用户身份认证方式（如API Key、JWT、OAuth2）以及资源级授权（如用户只能操作自己的待办事项），确保数据隔离。",
      "dependencies": [],
      "design_content": ""
    },
    {
      "id": "step_84a6e0d9",
      "index": 12,
      "name": "数据加密与隐私保护",
      "description": "明确传输层（TLS/HTTPS）和存储层（如数据库字段加密）的加密要求，以及个人数据（如用户ID、待办内容）的隐私保护措施，符合GDPR等法规。",
      "dependencies": [],
      "design_content": ""
    }
  ]
}